simulation/qsim/LogicalStep_Lab3.msim.vcd
$comment
	File created using the following command:
		vcd file LogicalStep_Lab3.msim.vcd -direction
$end
$date
	Tue Jul 14 16:23:09 2020
$end
$version
	ModelSim Version 10.5b
$end
$timescale
	1ps
$end

$scope module logicalstep_lab3_top_vhd_vec_tst $end
$var wire 1 ! clk_in $end
$var wire 1 " leds [11] $end
$var wire 1 # leds [10] $end
$var wire 1 $ leds [9] $end
$var wire 1 % leds [8] $end
$var wire 1 & leds [7] $end
$var wire 1 ' leds [6] $end
$var wire 1 ( leds [5] $end
$var wire 1 ) leds [4] $end
$var wire 1 * leds [3] $end
$var wire 1 + leds [2] $end
$var wire 1 , leds [1] $end
$var wire 1 - leds [0] $end
$var wire 1 . pb [3] $end
$var wire 1 / pb [2] $end
$var wire 1 0 pb [1] $end
$var wire 1 1 pb [0] $end
$var wire 1 2 sw [7] $end
$var wire 1 3 sw [6] $end
$var wire 1 4 sw [5] $end
$var wire 1 5 sw [4] $end
$var wire 1 6 sw [3] $end
$var wire 1 7 sw [2] $end
$var wire 1 8 sw [1] $end
$var wire 1 9 sw [0] $end

$scope module i1 $end
$var wire 1 : gnd $end
$var wire 1 ; vcc $end
$var wire 1 < unknown $end
$var wire 1 = devoe $end
$var wire 1 > devclrn $end
$var wire 1 ? devpor $end
$var wire 1 @ ww_devoe $end
$var wire 1 A ww_devclrn $end
$var wire 1 B ww_devpor $end
$var wire 1 C ww_clk_in $end
$var wire 1 D ww_pb [3] $end
$var wire 1 E ww_pb [2] $end
$var wire 1 F ww_pb [1] $end
$var wire 1 G ww_pb [0] $end
$var wire 1 H ww_sw [7] $end
$var wire 1 I ww_sw [6] $end
$var wire 1 J ww_sw [5] $end
$var wire 1 K ww_sw [4] $end
$var wire 1 L ww_sw [3] $end
$var wire 1 M ww_sw [2] $end
$var wire 1 N ww_sw [1] $end
$var wire 1 O ww_sw [0] $end
$var wire 1 P ww_leds [11] $end
$var wire 1 Q ww_leds [10] $end
$var wire 1 R ww_leds [9] $end
$var wire 1 S ww_leds [8] $end
$var wire 1 T ww_leds [7] $end
$var wire 1 U ww_leds [6] $end
$var wire 1 V ww_leds [5] $end
$var wire 1 W ww_leds [4] $end
$var wire 1 X ww_leds [3] $end
$var wire 1 Y ww_leds [2] $end
$var wire 1 Z ww_leds [1] $end
$var wire 1 [ ww_leds [0] $end
$var wire 1 \ \~QUARTUS_CREATED_ADC1~_CHSEL_bus\ [4] $end
$var wire 1 ] \~QUARTUS_CREATED_ADC1~_CHSEL_bus\ [3] $end
$var wire 1 ^ \~QUARTUS_CREATED_ADC1~_CHSEL_bus\ [2] $end
$var wire 1 _ \~QUARTUS_CREATED_ADC1~_CHSEL_bus\ [1] $end
$var wire 1 ` \~QUARTUS_CREATED_ADC1~_CHSEL_bus\ [0] $end
$var wire 1 a \clk_in~inputclkctrl_INCLK_bus\ [3] $end
$var wire 1 b \clk_in~inputclkctrl_INCLK_bus\ [2] $end
$var wire 1 c \clk_in~inputclkctrl_INCLK_bus\ [1] $end
$var wire 1 d \clk_in~inputclkctrl_INCLK_bus\ [0] $end
$var wire 1 e \~QUARTUS_CREATED_GND~I_combout\ $end
$var wire 1 f \~QUARTUS_CREATED_UNVM~~busy\ $end
$var wire 1 g \~QUARTUS_CREATED_ADC1~~eoc\ $end
$var wire 1 h \leds[0]~output_o\ $end
$var wire 1 i \leds[1]~output_o\ $end
$var wire 1 j \leds[2]~output_o\ $end
$var wire 1 k \leds[3]~output_o\ $end
$var wire 1 l \leds[4]~output_o\ $end
$var wire 1 m \leds[5]~output_o\ $end
$var wire 1 n \leds[6]~output_o\ $end
$var wire 1 o \leds[7]~output_o\ $end
$var wire 1 p \leds[8]~output_o\ $end
$var wire 1 q \leds[9]~output_o\ $end
$var wire 1 r \leds[10]~output_o\ $end
$var wire 1 s \leds[11]~output_o\ $end
$var wire 1 t \sw[1]~input_o\ $end
$var wire 1 u \pb[3]~input_o\ $end
$var wire 1 v \sw[5]~input_o\ $end
$var wire 1 w \mux1|hex_out[1]~2_combout\ $end
$var wire 1 x \sw[0]~input_o\ $end
$var wire 1 y \sw[4]~input_o\ $end
$var wire 1 z \mux1|hex_out[0]~3_combout\ $end
$var wire 1 { \clk_in~input_o\ $end
$var wire 1 | \clk_in~inputclkctrl_outclk\ $end
$var wire 1 } \sw[3]~input_o\ $end
$var wire 1 ~ \sw[7]~input_o\ $end
$var wire 1 !! \mux1|hex_out[3]~0_combout\ $end
$var wire 1 "! \sw[6]~input_o\ $end
$var wire 1 #! \sw[2]~input_o\ $end
$var wire 1 $! \mux1|hex_out[2]~1_combout\ $end
$var wire 1 %! \hvac1|counter:cnt[1]~2_cout\ $end
$var wire 1 &! \hvac1|counter:cnt[1]~3_combout\ $end
$var wire 1 '! \pb[0]~input_o\ $end
$var wire 1 (! \pb[1]~input_o\ $end
$var wire 1 )! \pb[2]~input_o\ $end
$var wire 1 *! \ctrl1|run_n~0_combout\ $end
$var wire 1 +! \cmp1|inst3|sout~0_combout\ $end
$var wire 1 ,! \cmp1|results[1]~4_combout\ $end
$var wire 1 -! \hvac1|counter:cnt[2]~3_combout\ $end
$var wire 1 .! \cmp1|results[2]~5_combout\ $end
$var wire 1 /! \cmp1|results[2]~6_combout\ $end
$var wire 1 0! \hvac1|counter:cnt[2]~4_combout\ $end
$var wire 1 1! \hvac1|counter:cnt[2]~5_combout\ $end
$var wire 1 2! \hvac1|counter:cnt[1]~q\ $end
$var wire 1 3! \hvac1|counter:cnt[1]~4\ $end
$var wire 1 4! \hvac1|counter:cnt[2]~1_combout\ $end
$var wire 1 5! \hvac1|counter:cnt[2]~q\ $end
$var wire 1 6! \hvac1|counter:cnt[2]~2\ $end
$var wire 1 7! \hvac1|counter:cnt[3]~1_combout\ $end
$var wire 1 8! \hvac1|counter:cnt[3]~q\ $end
$var wire 1 9! \cmp1|results[0]~2_combout\ $end
$var wire 1 :! \cmp1|results[0]~0_combout\ $end
$var wire 1 ;! \hvac1|counter~0_combout\ $end
$var wire 1 <! \hvac1|counter~1_combout\ $end
$var wire 1 =! \ctrl1|run_n~combout\ $end
$var wire 1 >! \hvac1|counter:cnt[0]~0_combout\ $end
$var wire 1 ?! \hvac1|counter:cnt[0]~q\ $end
$var wire 1 @! \cmp1|results[0]~1_combout\ $end
$var wire 1 A! \cmp1|results[0]~3_combout\ $end
$var wire 1 B! \cmp1|results[2]~7_combout\ $end
$var wire 1 C! \tst1|TEST_PASS~3_combout\ $end
$var wire 1 D! \tst1|TEST_PASS~4_combout\ $end
$var wire 1 E! \tst1|TEST_PASS~5_combout\ $end
$var wire 1 F! \tst1|TEST_PASS~0_combout\ $end
$var wire 1 G! \tst1|TEST_PASS~1_combout\ $end
$var wire 1 H! \tst1|TEST_PASS~2_combout\ $end
$var wire 1 I! \tst1|TEST_PASS~7_combout\ $end
$var wire 1 J! \tst1|TEST_PASS~6_combout\ $end
$var wire 1 K! \tst1|TEST_PASS~8_combout\ $end
$var wire 1 L! \tst1|TEST_PASS~9_combout\ $end
$var wire 1 M! \ctrl1|ALT_INV_run_n~combout\ $end
$var wire 1 N! \cmp1|ALT_INV_results[1]~4_combout\ $end
$upscope $end
$upscope $end
$enddefinitions $end
#0
$dumpvars
0!
0:
1;
x<
1=
1>
1?
1@
1A
1B
0C
0e
zf
zg
1h
0i
0j
1k
0l
0m
0n
0o
0p
0q
0r
0s
1t
0u
1v
1w
1x
1y
1z
0{
0|
1}
0~
1!!
0"!
1#!
1$!
0%!
0&!
0'!
0(!
0)!
0*!
1+!
1,!
0-!
0.!
0/!
00!
11!
02!
13!
04!
05!
06!
07!
08!
09!
1:!
1;!
1<!
0=!
1>!
0?!
1@!
1A!
0B!
1C!
1D!
1E!
0F!
0G!
0H!
0I!
0J!
0K!
0L!
1M!
0N!
0.
0/
00
01
02
03
14
15
16
17
18
19
0"
0#
0$
0%
0&
0'
0(
0)
1*
0+
0,
1-
0D
0E
0F
0G
0H
0I
1J
1K
1L
1M
1N
1O
0P
0Q
0R
0S
0T
0U
0V
0W
1X
0Y
0Z
1[
1a
1b
1c
0d
0\
0]
0^
0_
0`
$end
#5000
1!
1C
1{
1d
1|
1?!
1p
1%!
1-!
0>!
1S
1&!
1%
#10000
0!
0C
0{
0d
0|
#15000
1!
1C
1{
1d
1|
12!
0?!
0p
1q
0%!
1>!
0&!
03!
0+!
0S
1R
14!
1&!
13!
0%
1$
04!
#20000
0!
0C
0{
0d
0|
#25000
1!
1C
1{
1d
1|
1?!
1p
1%!
0>!
0@!
0C!
1I!
1S
0&!
03!
1%
14!
#30000
0!
0C
0{
0d
0|
#35000
1!
1C
1{
1d
1|
02!
15!
0?!
0p
1r
0q
0%!
1>!
04!
16!
0D!
1&!
13!
1+!
1@!
1C!
0I!
0S
1Q
0R
1D!
14!
06!
17!
0&!
0%
0$
1#
07!
#40000
0!
0C
0{
0d
0|
#45000
1!
1C
1{
1d
1|
1?!
1p
1%!
0>!
1S
1&!
1%
#50000
0!
0C
0{
0d
0|
#55000
1!
1C
1{
1d
1|
12!
0?!
0p
1q
0%!
1>!
0&!
03!
0+!
0S
1R
04!
16!
1&!
13!
0%
1$
14!
06!
17!
07!
#60000
0!
0C
0{
0d
0|
#65000
1!
1C
1{
1d
1|
1?!
1p
1%!
0>!
0@!
0C!
1I!
1S
0D!
0&!
03!
1%
04!
16!
17!
#70000
0!
0C
0{
0d
0|
#75000
1!
1C
1{
1d
1|
02!
05!
18!
0?!
0p
1s
0r
0q
0%!
1>!
07!
0E!
14!
06!
1D!
1&!
13!
1+!
1@!
1C!
0I!
0S
1P
0Q
0R
04!
1E!
17!
0&!
0%
0$
0#
1"
#80000
0!
0C
0{
0d
0|
#85000
1!
1C
1{
1d
1|
1?!
1p
1%!
0>!
1S
1&!
1%
#90000
0!
0C
0{
0d
0|
#95000
1!
1C
1{
1d
1|
12!
0?!
0p
1q
0%!
1>!
0&!
03!
0+!
0S
1R
14!
1&!
13!
0%
1$
04!
#100000
0!
11
0C
1G
1'!
0{
0d
1m
1*!
1=!
0M!
1V
0>!
01!
1(
0k
0|
0X
0*
#105000
1!
1C
1{
1d
1|
#110000
0!
0C
0{
0d
0|
#115000
1!
1C
1{
1d
1|
#120000
0!
0C
0{
0d
0|
#125000
1!
1C
1{
1d
1|
#130000
0!
0C
0{
0d
0|
#135000
1!
1C
1{
1d
1|
#140000
0!
0C
0{
0d
0|
#145000
1!
1C
1{
1d
1|
#150000
0!
0C
0{
0d
0|
#155000
1!
1C
1{
1d
1|
#160000
0!
0C
0{
0d
0|
#165000
1!
1C
1{
1d
1|
#170000
0!
0C
0{
0d
0|
#175000
1!
1C
1{
1d
1|
#180000
0!
0C
0{
0d
0|
#185000
1!
1C
1{
1d
1|
#190000
0!
0C
0{
0d
0|
#195000
1!
1C
1{
1d
1|
#200000
0!
01
10
0C
0G
1F
1(!
0'!
0{
0d
0m
1l
0V
1W
1)
0(
0|
#205000
1!
1C
1{
1d
1|
#210000
0!
0C
0{
0d
0|
#215000
1!
1C
1{
1d
1|
#220000
0!
0C
0{
0d
0|
#225000
1!
1C
1{
1d
1|
#230000
0!
0C
0{
0d
0|
#235000
1!
1C
1{
1d
1|
#240000
0!
0C
0{
0d
0|
#245000
1!
1C
1{
1d
1|
#250000
0!
0C
0{
0d
0|
#255000
1!
1C
1{
1d
1|
#260000
0!
0C
0{
0d
0|
#265000
1!
1C
1{
1d
1|
#270000
0!
0C
0{
0d
0|
#275000
1!
1C
1{
1d
1|
#280000
0!
0C
0{
0d
0|
#285000
1!
1C
1{
1d
1|
#290000
0!
0C
0{
0d
0|
#295000
1!
1C
1{
1d
1|
#300000
0!
11
0C
1G
1'!
0{
0d
1m
1V
1(
0|
#305000
1!
1C
1{
1d
1|
#310000
0!
0C
0{
0d
0|
#315000
1!
1C
1{
1d
1|
#320000
0!
0C
0{
0d
0|
#325000
1!
1C
1{
1d
1|
#330000
0!
0C
0{
0d
0|
#335000
1!
1C
1{
1d
1|
#340000
0!
0C
0{
0d
0|
#345000
1!
1C
1{
1d
1|
#350000
0!
0C
0{
0d
0|
#355000
1!
1C
1{
1d
1|
#360000
0!
0C
0{
0d
0|
#365000
1!
1C
1{
1d
1|
#370000
0!
0C
0{
0d
0|
#375000
1!
1C
1{
1d
1|
#380000
0!
0C
0{
0d
0|
#385000
1!
1C
1{
1d
1|
#390000
0!
0C
0{
0d
0|
#395000
1!
1C
1{
1d
1|
#400000
0!
01
00
0C
0G
0F
0(!
0'!
0{
0d
0m
0l
0*!
0=!
1M!
0V
0W
1>!
11!
0)
0(
1k
0|
1X
1*
#405000
1!
1C
1{
1d
1|
1?!
1p
1%!
0>!
0@!
0C!
1I!
1S
0&!
03!
1%
14!
#410000
0!
0C
0{
0d
0|
#415000
1!
1C
1{
1d
1|
02!
15!
0?!
0p
1r
0q
0%!
1>!
04!
16!
19!
0:!
0D!
1J!
1&!
13!
1+!
1@!
1C!
0I!
0S
1Q
0R
1D!
14!
06!
0E!
07!
0&!
0%
0$
1#
17!
1E!
#420000
0!
0C
0{
0d
0|
#425000
1!
1C
1{
1d
1|
1?!
1p
1%!
0>!
1S
1&!
1%
#430000
0!
0C
0{
0d
0|
#435000
1!
1C
1{
1d
1|
12!
0?!
0p
1q
0%!
1>!
0&!
03!
0+!
0S
1R
04!
16!
1&!
13!
0%
1$
14!
06!
07!
17!
#440000
0!
0C
0{
0d
0|
#445000
1!
1C
1{
1d
1|
1?!
1p
1%!
0,!
0;!
0>!
0@!
0C!
1I!
1N!
1S
0D!
0A!
0<!
01!
1=!
1K!
0&!
03!
1%
1i
0M!
0h
1&!
16!
07!
1>!
0E!
1Z
0k
0[
1,
17!
0X
0-
0*
#450000
0!
0C
0{
0d
0|
#455000
1!
1C
1{
1d
1|
#460000
0!
1.
0C
1D
1u
0{
0d
1o
0!!
0$!
1T
1.!
09!
1&
0|
1,!
10!
1B!
0N!
1j
11!
0=!
0K!
0i
1M!
1Y
0>!
0Z
1+
1k
0,
1X
1*
#465000
1!
1C
1{
1d
1|
0?!
0p
0%!
1;!
1>!
1@!
1C!
0I!
0S
1D!
0&!
0%
#470000
0!
0C
0{
0d
0|
#475000
1!
1C
1{
1d
1|
02!
1?!
1p
0q
1%!
0>!
1&!
13!
1+!
1S
0R
04!
0&!
03!
1%
0$
14!
#480000
0!
0C
0{
0d
0|
#485000
1!
1C
1{
1d
1|
0?!
0p
0%!
1>!
0S
1&!
13!
0%
04!
#490000
0!
0C
0{
0d
0|
#495000
1!
1C
1{
1d
1|
12!
05!
1?!
1p
0r
1q
1%!
0>!
14!
06!
0J!
0&!
03!
0+!
0@!
0C!
1I!
1S
0Q
1R
04!
16!
07!
1&!
1%
1$
0#
17!
#500000
0!
11
0C
1G
1'!
0{
0d
1m
1*!
1=!
0M!
1V
1>!
01!
1(
0k
0|
0X
0*
#505000
1!
1C
1{
1d
1|
#510000
0!
0C
0{
0d
0|
#515000
1!
1C
1{
1d
1|
#520000
0!
0C
0{
0d
0|
#525000
1!
1C
1{
1d
1|
#530000
0!
0C
0{
0d
0|
#535000
1!
1C
1{
1d
1|
#540000
0!
0C
0{
0d
0|
#545000
1!
1C
1{
1d
1|
#550000
0!
0C
0{
0d
0|
#555000
1!
1C
1{
1d
1|
#560000
0!
0C
0{
0d
0|
#565000
1!
1C
1{
1d
1|
#570000
0!
0C
0{
0d
0|
#575000
1!
1C
1{
1d
1|
#580000
0!
0C
0{
0d
0|
#585000
1!
1C
1{
1d
1|
#590000
0!
0C
0{
0d
0|
#595000
1!
1C
1{
1d
1|
#600000
0!
01
10
0C
0G
1F
1(!
0'!
0{
0d
0m
1l
0V
1W
1)
0(
0|
#605000
1!
1C
1{
1d
1|
#610000
0!
0C
0{
0d
0|
#615000
1!
1C
1{
1d
1|
#620000
0!
0C
0{
0d
0|
#625000
1!
1C
1{
1d
1|
#630000
0!
0C
0{
0d
0|
#635000
1!
1C
1{
1d
1|
#640000
0!
0C
0{
0d
0|
#645000
1!
1C
1{
1d
1|
#650000
0!
0C
0{
0d
0|
#655000
1!
1C
1{
1d
1|
#660000
0!
0C
0{
0d
0|
#665000
1!
1C
1{
1d
1|
#670000
0!
0C
0{
0d
0|
#675000
1!
1C
1{
1d
1|
#680000
0!
0C
0{
0d
0|
#685000
1!
1C
1{
1d
1|
#690000
0!
0C
0{
0d
0|
#695000
1!
1C
1{
1d
1|
#700000
0!
11
0C
1G
1'!
0{
0d
1m
1V
1(
0|
#705000
1!
1C
1{
1d
1|
#710000
0!
0C
0{
0d
0|
#715000
1!
1C
1{
1d
1|
#720000
0!
0C
0{
0d
0|
#725000
1!
1C
1{
1d
1|
#730000
0!
0C
0{
0d
0|
#735000
1!
1C
1{
1d
1|
#740000
0!
0C
0{
0d
0|
#745000
1!
1C
1{
1d
1|
#750000
0!
0C
0{
0d
0|
#755000
1!
1C
1{
1d
1|
#760000
0!
0C
0{
0d
0|
#765000
1!
1C
1{
1d
1|
#770000
0!
0C
0{
0d
0|
#775000
1!
1C
1{
1d
1|
#780000
0!
0C
0{
0d
0|
#785000
1!
1C
1{
1d
1|
#790000
0!
0C
0{
0d
0|
#795000
1!
1C
1{
1d
1|
#800000
0!
01
00
0C
0G
0F
0(!
0'!
0{
0d
0m
0l
0*!
0=!
1M!
0V
0W
0>!
11!
0)
0(
1k
0|
1X
1*
#805000
1!
1C
1{
1d
1|
0?!
0p
0%!
1>!
1@!
1C!
0I!
0S
0&!
0%
#810000
0!
0C
0{
0d
0|
#815000
1!
1C
1{
1d
1|
02!
1?!
1p
0q
1%!
0>!
1&!
13!
1+!
1S
0R
14!
06!
0&!
03!
1%
0$
04!
16!
07!
17!
#820000
0!
0C
0{
0d
0|
#825000
1!
1C
1{
1d
1|
0?!
0p
0%!
1>!
0S
1&!
13!
0%
14!
06!
07!
#830000
0!
0C
0{
0d
0|
#835000
1!
1C
1{
1d
1|
12!
15!
08!
1?!
1p
0s
1r
1q
1%!
0>!
17!
04!
16!
0&!
03!
0+!
0@!
0C!
1I!
1S
0P
1Q
1R
0D!
14!
07!
1&!
1%
1$
1#
0"
#840000
0!
0C
0{
0d
0|
#845000
1!
1C
1{
1d
1|
0?!
0p
0%!
1>!
1@!
1C!
0I!
0S
1D!
0&!
0%
#850000
0!
0C
0{
0d
0|
#855000
1!
1C
1{
1d
1|
02!
1?!
1p
0q
1%!
0>!
1&!
13!
1+!
1S
0R
04!
0&!
03!
1%
0$
14!
#860000
0!
0C
0{
0d
0|
#865000
1!
1C
1{
1d
1|
0?!
0p
0%!
1>!
0S
1&!
13!
0%
04!
#870000
0!
0C
0{
0d
0|
#875000
1!
1C
1{
1d
1|
12!
05!
1?!
1p
0r
1q
1%!
0>!
0.!
14!
06!
19!
0&!
03!
0+!
0@!
0C!
1I!
1S
0Q
1R
04!
16!
0,!
17!
00!
0B!
1&!
1%
1$
0#
1N!
0j
1>!
01!
1=!
07!
1i
0M!
0Y
1Z
0+
0k
1,
0X
0*
#880000
0!
0C
0{
0d
0|
#885000
1!
1C
1{
1d
1|
#890000
0!
0C
0{
0d
0|
#895000
1!
1C
1{
1d
1|
#900000
0!
11
0C
1G
1'!
0{
0d
1m
1*!
1V
1(
0|
#905000
1!
1C
1{
1d
1|
#910000
0!
0C
0{
0d
0|
#915000
1!
1C
1{
1d
1|
#920000
0!
0.
0C
0D
0u
0{
0d
0o
1!!
1$!
0T
09!
1:!
0&
0|
1,!
1<!
1A!
0N!
1h
1E!
0&!
14!
06!
17!
0i
1[
07!
0Z
1-
0,
#925000
1!
1C
1{
1d
1|
#930000
0!
0C
0{
0d
0|
#935000
1!
1C
1{
1d
1|
#940000
0!
0C
0{
0d
0|
#945000
1!
1C
1{
1d
1|
#950000
0!
0C
0{
0d
0|
#955000
1!
1C
1{
1d
1|
#960000
0!
0C
0{
0d
0|
#965000
1!
1C
1{
1d
1|
#970000
0!
0C
0{
0d
0|
#975000
1!
1C
1{
1d
1|
#980000
0!
0C
0{
0d
0|
#985000
1!
1C
1{
1d
1|
#990000
0!
0C
0{
0d
0|
#995000
1!
1C
1{
1d
1|
